…
## Demonstration for `gdp`

We demonstrate the clustering method for the `gdp` dataset provided with
this package, sourced from <https://www.conference-board.org/us/>.

``` r
library(eclust)
library(tsibble)
#> 
#> Attaching package: 'tsibble'
#> The following objects are masked from 'package:base':
#> 
#>     intersect, setdiff, union
gdp
#> # A tsibble: 920 x 3 [1Y]
#> # Key:       country [23]
#>    country    year    gdp
#>    <chr>     <dbl>  <dbl>
#>  1 Australia  1980 431329
#>  2 Australia  1981 449122
#>  3 Australia  1982 450019
#>  4 Australia  1983 447042
#>  5 Australia  1984 477014
#>  6 Australia  1985 501031
#>  7 Australia  1986 511606
#>  8 Australia  1987 537039
#>  9 Australia  1988 559356
#> 10 Australia  1989 585267
#> # ℹ 910 more rows
```
…
